%YAML 1.1
%TAG !u! tag:unity3d.com,2011:
--- !u!114 &11400000
MonoBehaviour:
  m_ObjectHideFlags: 0
  m_CorrespondingSourceObject: {fileID: 0}
  m_PrefabInstance: {fileID: 0}
  m_PrefabAsset: {fileID: 0}
  m_GameObject: {fileID: 0}
  m_Enabled: 1
  m_EditorHideFlags: 0
  m_Script: {fileID: 11500000, guid: bb9ed7d60e3cb7f46b94edf3ccdc9ed0, type: 3}
  m_Name: Scene Links
  m_EditorClassIdentifier: 
  m_scenes:
  - ID: {fileID: 3594096122341637684, guid: d3ca516f8e10b0c4090ca92c7e5d71ba, type: 2}
    Scene:
      m_sceneAsset: {fileID: 102900000, guid: 6e1115c0ccf1aaa4e8106d8f8b925737, type: 3}
      m_scenePath: Assets/_Unogeon/Scenes/scene.unity
      m_sceneName: scene
