%YAML 1.1
%TAG !u! tag:unity3d.com,2011:
--- !u!114 &11400000
MonoBehaviour:
  m_ObjectHideFlags: 0
  m_CorrespondingSourceObject: {fileID: 0}
  m_PrefabInstance: {fileID: 0}
  m_PrefabAsset: {fileID: 0}
  m_GameObject: {fileID: 0}
  m_Enabled: 1
  m_EditorHideFlags: 0
  m_Script: {fileID: 11500000, guid: 12f3b74fe96ceb5469f72844eee94eb7, type: 3}
  m_Name: PoolSettings
  m_EditorClassIdentifier: 
  Items: []
  AutoCreateDefaultItems: 0
  DebugLogsEnabled: 0
  ButtonBool: 0
