%YAML 1.1
%TAG !u! tag:unity3d.com,2011:
--- !u!1045 &1
EditorBuildSettings:
  m_ObjectHideFlags: 0
  serializedVersion: 2
  m_Scenes:
  - enabled: 1
    path: Assets/_Unogeon/Scenes/scene.unity
    guid: 6e1115c0ccf1aaa4e8106d8f8b925737
  m_configObjects:
    com.unity.input.settings: {fileID: 11400000, guid: 8e095449d885cd54fb657879c2250263, type: 2}
